[gd_resource type="AudioStreamSample" format=2]

[resource]

format = 1
loop_mode = 0
loop_begin = 0
loop_end = 0
mix_rate = 44100
stereo = false
data = PoolByteArray( 66, 54, 66, 54, 96, 78, 96, 78, 112, 95, 112, 95, 18, 109, 18, 109, 124, 120, 124, 120, 255, 127, 255, 127, 255, 127, 255, 127, 254, 127, 254, 127, 252, 127, 252, 127, 250, 127, 250, 127, 249, 127, 249, 127, 249, 127, 249, 127, 247, 127, 247, 127, 245, 127, 245, 127, 243, 127, 243, 127, 242, 127, 242, 127, 242, 127, 242, 127, 240, 127, 240, 127, 238, 127, 238, 127, 237, 127, 237, 127, 235, 127, 235, 127, 235, 127, 235, 127, 233, 127, 233, 127, 231, 127, 231, 127, 230, 127, 230, 127, 228, 127, 228, 127, 228, 127, 228, 127, 241, 126, 241, 126, 166, 116, 166, 116, 144, 104, 144, 104, 244, 89, 244, 89, 39, 71, 39, 71, 209, 41, 209, 41, 57, 209, 57, 209, 44, 182, 44, 182, 19, 164, 19, 164, 217, 149, 217, 149, 7, 138, 7, 138, 47, 128, 47, 128, 49, 128, 49, 128, 51, 128, 51, 128, 51, 128, 51, 128, 52, 128, 52, 128, 54, 128, 54, 128, 56, 128, 56, 128, 57, 128, 57, 128, 57, 128, 57, 128, 59, 128, 59, 128, 61, 128, 61, 128, 63, 128, 63, 128, 64, 128, 64, 128, 64, 128, 64, 128, 66, 128, 66, 128, 68, 128, 68, 128, 70, 128, 70, 128, 71, 128, 71, 128, 71, 128, 71, 128, 73, 128, 73, 128, 75, 128, 75, 128, 76, 128, 76, 128, 78, 128, 78, 128, 34, 137, 34, 137, 197, 148, 197, 148, 184, 162, 184, 162, 84, 180, 84, 180, 244, 205, 244, 205, 126, 37, 126, 37, 239, 68, 239, 68, 67, 88, 67, 88, 36, 103, 36, 103, 102, 115, 102, 115, 207, 125, 207, 125, 164, 127, 164, 127, 162, 127, 162, 127, 161, 127, 161, 127, 159, 127, 159, 127, 159, 127, 159, 127, 157, 127, 157, 127, 155, 127, 155, 127, 154, 127, 154, 127, 152, 127, 152, 127, 152, 127, 152, 127, 150, 127, 150, 127, 149, 127, 149, 127, 147, 127, 147, 127, 145, 127, 145, 127, 145, 127, 145, 127, 143, 127, 143, 127, 142, 127, 142, 127, 140, 127, 140, 127, 138, 127, 138, 127, 138, 127, 138, 127, 136, 127, 136, 127, 135, 127, 135, 127, 1, 121, 1, 121, 204, 109, 204, 109, 116, 96, 116, 96, 219, 79, 219, 79, 216, 56, 216, 56, 46, 232, 46, 232, 107, 192, 107, 192, 156, 171, 156, 171, 0, 156, 0, 156, 70, 143, 70, 143, 132, 132, 132, 132, 140, 128, 140, 128, 140, 128, 140, 128, 142, 128, 142, 128, 144, 128, 144, 128, 145, 128, 145, 128, 147, 128, 147, 128, 147, 128, 147, 128, 149, 128, 149, 128, 151, 128, 151, 128, 152, 128, 152, 128, 154, 128, 154, 128, 154, 128, 154, 128, 156, 128, 156, 128, 157, 128, 157, 128, 159, 128, 159, 128, 161, 128, 161, 128, 163, 128, 163, 128, 163, 128, 163, 128, 164, 128, 164, 128, 166, 128, 166, 128, 168, 128, 168, 128, 170, 128, 170, 128, 243, 132, 243, 132, 194, 143, 194, 143, 142, 156, 142, 156, 67, 172, 67, 172, 75, 193, 75, 193, 20, 235, 20, 235, 167, 57, 167, 57, 81, 80, 81, 80, 192, 96, 192, 96, 252, 109, 252, 109, 27, 121, 27, 121, 73, 127, 73, 127, 71, 127, 71, 127, 69, 127, 69, 127, 67, 127, 67, 127, 67, 127, 67, 127, 66, 127, 66, 127, 64, 127, 64, 127, 62, 127, 62, 127, 61, 127, 61, 127, 61, 127, 61, 127, 59, 127, 59, 127, 57, 127, 57, 127, 55, 127, 55, 127, 54, 127, 54, 127, 54, 127, 54, 127, 52, 127, 52, 127, 50, 127, 50, 127, 48, 127, 48, 127, 47, 127, 47, 127, 47, 127, 47, 127, 45, 127, 45, 127, 43, 127, 43, 127, 8, 125, 8, 125, 154, 114, 154, 114, 81, 102, 81, 102, 100, 87, 100, 87, 240, 67, 240, 67, 198, 35, 198, 35, 30, 205, 30, 205, 8, 180, 8, 180, 167, 162, 167, 162, 221, 148, 221, 148, 91, 137, 91, 137, 232, 128, 232, 128, 233, 128, 233, 128, 233, 128, 233, 128, 235, 128, 235, 128, 237, 128, 237, 128, 239, 128, 239, 128, 240, 128, 240, 128, 240, 128, 240, 128, 242, 128, 242, 128, 244, 128, 244, 128, 245, 128, 245, 128, 247, 128, 247, 128, 247, 128, 247, 128, 249, 128, 249, 128, 251, 128, 251, 128, 252, 128, 252, 128, 254, 128, 254, 128, 254, 128, 254, 128, 0, 129, 0, 129, 2, 129, 2, 129, 3, 129, 3, 129, 5, 129, 5, 129, 19, 129, 19, 129, 40, 139, 40, 139, 248, 150, 248, 150, 49, 165, 49, 165, 87, 183, 87, 183, 184, 210, 184, 210, 210, 42, 210, 42, 82, 71, 82, 71, 206, 89, 206, 89, 52, 104, 52, 104, 34, 116, 34, 116, 73, 126, 73, 126, 235, 126, 235, 126, 234, 126, 234, 126, 232, 126, 232, 126, 230, 126, 230, 126, 230, 126, 230, 126, 229, 126, 229, 126, 227, 126, 227, 126, 225, 126, 225, 126, 223, 126, 223, 126, 223, 126, 223, 126, 222, 126, 222, 126, 220, 126, 220, 126, 218, 126, 218, 126, 217, 126, 217, 126, 217, 126, 217, 126, 215, 126, 215, 126, 213, 126, 213, 126, 211, 126, 211, 126, 210, 126, 210, 126, 208, 126, 208, 126, 208, 126, 208, 126, 206, 126, 206, 126, 6, 119, 6, 119, 166, 107, 166, 107, 14, 94, 14, 94, 2, 77, 2, 77, 195, 52, 195, 52, 184, 223, 184, 223, 186, 189, 186, 189, 238, 169, 238, 169, 219, 154, 219, 154, 124, 142, 124, 142, 254, 131, 254, 131, 69, 129, 69, 129, 71, 129, 71, 129, 71, 129, 71, 129, 72, 129, 72, 129, 74, 129, 74, 129, 76, 129, 76, 129, 77, 129, 77, 129, 79, 129, 79, 129, 79, 129, 79, 129, 81, 129, 81, 129, 83, 129, 83, 129, 84, 129, 84, 129, 86, 129, 86, 129, 86, 129, 86, 129, 88, 129, 88, 129, 90, 129, 90, 129, 91, 129, 91, 129, 93, 129, 93, 129, 93, 129, 93, 129, 95, 129, 95, 129, 96, 129, 96, 129, 98, 129, 98, 129, 231, 134, 231, 134, 222, 145, 222, 145, 227, 158, 227, 158, 250, 174, 250, 174, 240, 196, 240, 196, 190, 12, 190, 12, 188, 60, 188, 60, 36, 82, 36, 82, 254, 97, 254, 97, 215, 110, 215, 110, 175, 121, 175, 121, 142, 126, 142, 126, 142, 126, 142, 126, 141, 126, 141, 126, 139, 126, 139, 126, 137, 126, 137, 126, 135, 126, 135, 126, 135, 126, 135, 126, 134, 126, 134, 126, 132, 126, 132, 126, 130, 126, 130, 126, 129, 126, 129, 126, 129, 126, 129, 126, 127, 126, 127, 126, 125, 126, 125, 126, 123, 126, 123, 126, 122, 126, 122, 126, 120, 126, 120, 126, 120, 126, 120, 126, 118, 126, 118, 126, 116, 126, 116, 126, 115, 126, 115, 126, 113, 126, 113, 126, 27, 123, 27, 123, 136, 112, 136, 112, 12, 100, 12, 100, 201, 84, 201, 84, 154, 64, 154, 64, 80, 28, 80, 28, 125, 201, 125, 201, 6, 178, 6, 178, 81, 161, 81, 161, 239, 147, 239, 147, 185, 136, 185, 136, 160, 129, 160, 129, 162, 129, 162, 129, 164, 129, 164, 129, 165, 129, 165, 129, 167, 129, 167, 129, 167, 129, 167, 129, 169, 129, 169, 129, 171, 129, 171, 129, 172, 129, 172, 129, 174, 129, 174, 129, 174, 129, 174, 129, 176, 129, 176, 129, 177, 129, 177, 129, 179, 129, 179, 129, 181, 129, 181, 129, 181, 129, 181, 129, 183, 129, 183, 129, 184, 129, 184, 129, 186, 129, 186, 129, 188, 129, 188, 129, 190, 129, 190, 129, 190, 129, 190, 129, 249, 130, 249, 130, 47, 141, 47, 141, 47, 153, 47, 153, 181, 167, 181, 167, 114, 186, 114, 186, 18, 216, 18, 216, 83, 47, 83, 47, 137, 73, 137, 73, 65, 91, 65, 91, 52, 105, 52, 105, 208, 116, 208, 116, 51, 126, 51, 126, 49, 126, 49, 126, 47, 126, 47, 126, 46, 126, 46, 126, 46, 126, 46, 126, 44, 126, 44, 126, 42, 126, 42, 126, 41, 126, 41, 126, 39, 126, 39, 126, 39, 126, 39, 126, 37, 126, 37, 126, 35, 126, 35, 126, 34, 126, 34, 126, 32, 126, 32, 126, 30, 126, 30, 126, 30, 126, 30, 126, 28, 126, 28, 126, 27, 126, 27, 126, 25, 126, 25, 126, 23, 126, 23, 126, 23, 126, 23, 126, 22, 126, 22, 126, 20, 126, 20, 126, 7, 117, 7, 117, 122, 105, 122, 105, 159, 91, 159, 91, 21, 74, 21, 74, 89, 48, 89, 48, 134, 217, 134, 217, 63, 187, 63, 187, 92, 168, 92, 168, 197, 153, 197, 153, 188, 141, 188, 141, 130, 131, 130, 131, 255, 129, 255, 129, 1, 130, 1, 130, 1, 130, 1, 130, 3, 130, 3, 130, 4, 130, 4, 130, 6, 130, 6, 130, 8, 130, 8, 130, 8, 130, 8, 130, 9, 130, 9, 130, 11, 130, 11, 130, 13, 130, 13, 130, 15, 130, 15, 130, 16, 130, 16, 130, 16, 130, 16, 130, 18, 130, 18, 130, 20, 130, 20, 130, 22, 130, 22, 130, 23, 130, 23, 130, 23, 130, 23, 130, 25, 130, 25, 130, 27, 130, 27, 130, 28, 130, 28, 130, 223, 136, 223, 136, 253, 147, 253, 147, 62, 161, 62, 161, 195, 177, 195, 177, 203, 200, 203, 200, 253, 25, 253, 25, 141, 63, 141, 63, 220, 83, 220, 83, 40, 99, 40, 99, 166, 111, 166, 111, 55, 122, 55, 122, 212, 125, 212, 125, 210, 125, 210, 125, 210, 125, 210, 125, 209, 125, 209, 125, 207, 125, 207, 125, 205, 125, 205, 125, 203, 125, 203, 125, 203, 125, 203, 125, 202, 125, 202, 125, 200, 125, 200, 125, 198, 125, 198, 125, 196, 125, 196, 125, 196, 125, 196, 125, 195, 125, 195, 125, 193, 125, 193, 125, 191, 125, 191, 125, 190, 125, 190, 125, 188, 125, 188, 125, 188, 125, 188, 125, 186, 125, 186, 125, 184, 125, 184, 125, 183, 125, 183, 125, 44, 121, 44, 121, 114, 110, 114, 110, 192, 97, 192, 97, 31, 82, 31, 82, 28, 61, 28, 61, 60, 17, 60, 17, 58, 198, 58, 198, 37, 176, 37, 176, 13, 160, 13, 160, 17, 147, 17, 147, 36, 136, 36, 136, 92, 130, 92, 130, 92, 130, 92, 130, 94, 130, 94, 130, 96, 130, 96, 130, 97, 130, 97, 130, 99, 130, 99, 130, 101, 130, 101, 130, 101, 130, 101, 130, 103, 130, 103, 130, 104, 130, 104, 130, 106, 130, 106, 130, 108, 130, 108, 130, 108, 130, 108, 130, 110, 130, 110, 130, 111, 130, 111, 130, 113, 130, 113, 130, 115, 130, 115, 130, 116, 130, 116, 130, 116, 130, 116, 130, 118, 130, 118, 130, 120, 130, 120, 130, 122, 130, 122, 130, 225, 132, 225, 132, 59, 143, 59, 143, 108, 155, 108, 155, 67, 170, 67, 170, 169, 189, 169, 189, 81, 222, 81, 222, 61, 51, 61, 51, 157, 75, 157, 75, 159, 92, 159, 92, 37, 106, 37, 106, 116, 117, 116, 117, 119, 125, 119, 125, 119, 125, 119, 125, 117, 125, 117, 125, 115, 125, 115, 125, 114, 125, 114, 125, 112, 125, 112, 125, 110, 125, 110, 125, 110, 125, 110, 125, 109, 125, 109, 125, 107, 125, 107, 125, 105, 125, 105, 125, 103, 125, 103, 125, 103, 125, 103, 125, 102, 125, 102, 125, 100, 125, 100, 125, 98, 125, 98, 125, 96, 125, 96, 125, 95, 125, 95, 125, 95, 125, 95, 125, 93, 125, 93, 125, 91, 125, 91, 125, 90, 125, 90, 125, 2, 125, 2, 125, 3, 115, 3, 115, 74, 103, 74, 103, 40, 89, 40, 89, 18, 71, 18, 71, 130, 43, 130, 43, 129, 212, 129, 212, 241, 184, 241, 184, 223, 166, 223, 166, 193, 152, 193, 152, 11, 141, 11, 141, 16, 131, 16, 131, 187, 130, 187, 130, 187, 130, 187, 130, 189, 130, 189, 130, 191, 130, 191, 130, 192, 130, 192, 130, 194, 130, 194, 130, 194, 130, 194, 130, 196, 130, 196, 130, 198, 130, 198, 130, 199, 130, 199, 130, 201, 130, 201, 130, 203, 130, 203, 130, 203, 130, 203, 130, 204, 130, 204, 130, 206, 130, 206, 130, 208, 130, 208, 130, 210, 130, 210, 130, 210, 130, 210, 130, 211, 130, 211, 130, 213, 130, 213, 130, 215, 130, 215, 130, 216, 130, 216, 130, 218, 138, 218, 138, 34, 150, 34, 150, 163, 163, 163, 163, 155, 180, 155, 180, 233, 204, 233, 204, 151, 33, 151, 33, 37, 66, 37, 66, 122, 85, 122, 85, 67, 100, 67, 100, 104, 112, 104, 112, 181, 122, 181, 122, 24, 125, 24, 125, 24, 125, 24, 125, 22, 125, 22, 125, 21, 125, 21, 125, 19, 125, 19, 125, 17, 125, 17, 125, 15, 125, 15, 125, 15, 125, 15, 125, 14, 125, 14, 125, 12, 125, 12, 125, 10, 125, 10, 125, 8, 125, 8, 125, 8, 125, 8, 125, 7, 125, 7, 125, 5, 125, 5, 125, 3, 125, 3, 125, 2, 125, 2, 125, 0, 125, 0, 125, 0, 125, 0, 125, 254, 124, 254, 124, 252, 124, 252, 124, 251, 124, 251, 124, 56, 119, 56, 119, 87, 108, 87, 108, 107, 95, 107, 95, 106, 79, 106, 79, 116, 57, 116, 57, 223, 238, 223, 238, 65, 195, 65, 195, 97, 174, 97, 174, 220, 158, 220, 158, 62, 146, 62, 146, 153, 135, 153, 135, 24, 131, 24, 131, 26, 131, 26, 131, 26, 131, 26, 131, 28, 131, 28, 131, 29, 131, 29, 131, 31, 131, 31, 131, 33, 131, 33, 131, 35, 131, 35, 131, 35, 131, 35, 131, 36, 131, 36, 131, 38, 131, 38, 131, 40, 131, 40, 131, 42, 131, 42, 131, 42, 131, 42, 131, 43, 131, 43, 131, 45, 131, 45, 131, 47, 131, 47, 131, 48, 131, 48, 131, 50, 131, 50, 131, 50, 131, 50, 131, 52, 131, 52, 131, 54, 131, 54, 131, 207, 134, 207, 134, 75, 145, 75, 145, 177, 157, 177, 157, 220, 172, 220, 172, 1, 193, 1, 193, 63, 230, 63, 230, 185, 54, 185, 54, 142, 77, 142, 77, 234, 93, 234, 93, 9, 107, 9, 107, 12, 118, 12, 118, 187, 124, 187, 124, 185, 124, 185, 124, 183, 124, 183, 124, 183, 124, 183, 124, 182, 124, 182, 124, 180, 124, 180, 124, 178, 124, 178, 124, 176, 124, 176, 124, 175, 124, 175, 124, 175, 124, 175, 124, 173, 124, 173, 124, 171, 124, 171, 124, 170, 124, 170, 124, 168, 124, 168, 124, 166, 124, 166, 124, 166, 124, 166, 124, 164, 124, 164, 124, 163, 124, 163, 124, 161, 124, 161, 124, 159, 124, 159, 124, 159, 124, 159, 124, 158, 124, 158, 124, 27, 123, 27, 123, 252, 112, 252, 112, 20, 101, 20, 101, 165, 86, 165, 86, 247, 67, 247, 67, 8, 38, 8, 38, 58, 208, 58, 208, 205, 182, 205, 182, 122, 165, 122, 165, 202, 151, 202, 151, 101, 140, 101, 140, 117, 131, 117, 131, 119, 131, 119, 131, 121, 131, 121, 131, 123, 131, 123, 131, 124, 131, 124, 131, 124, 131, 124, 131, 126, 131, 126, 131, 128, 131, 128, 131, 130, 131, 130, 131, 131, 131, 131, 131, 131, 131, 131, 131, 133, 131, 133, 131, 135, 131, 135, 131, 136, 131, 136, 131, 138, 131, 138, 131, 140, 131, 140, 131, 140, 131, 140, 131, 142, 131, 142, 131, 143, 131, 143, 131, 145, 131, 145, 131, 147, 131, 147, 131, 149, 131, 149, 131, 149, 131, 149, 131, 217, 140, 217, 140, 77, 152, 77, 152, 16, 166, 16, 166, 135, 183, 135, 183, 95, 209, 95, 209, 92, 39, 92, 39, 137, 68, 137, 68, 0, 87, 0, 87, 77, 101, 77, 101, 29, 113, 29, 113, 39, 123, 39, 123, 92, 124, 92, 124, 90, 124, 90, 124, 89, 124, 89, 124, 87, 124, 87, 124, 85, 124, 85, 124, 85, 124, 85, 124, 83, 124, 83, 124, 82, 124, 82, 124, 80, 124, 80, 124, 78, 124, 78, 124, 76, 124, 76, 124, 76, 124, 76, 124, 75, 124, 75, 124, 73, 124, 73, 124, 71, 124, 71, 124, 70, 124, 70, 124, 68, 124, 68, 124, 68, 124, 68, 124, 66, 124, 66, 124, 64, 124, 64, 124, 63, 124, 63, 124, 61, 124, 61, 124, 66, 117, 66, 117, 58, 106, 58, 106, 17, 93, 17, 93, 163, 76, 163, 76, 148, 53, 148, 53, 47, 228, 47, 228, 139, 192, 139, 192, 184, 172, 184, 172, 188, 157, 188, 157, 122, 145, 122, 145, 25, 135, 25, 135, 214, 131, 214, 131, 216, 131, 216, 131, 216, 131, 216, 131, 218, 131, 218, 131, 219, 131, 219, 131, 221, 131, 221, 131, 223, 131, 223, 131, 224, 131, 224, 131, 224, 131, 224, 131, 226, 131, 226, 131, 228, 131, 228, 131, 230, 131, 230, 131, 231, 131, 231, 131, 231, 131, 231, 131, 233, 131, 233, 131, 235, 131, 235, 131, 236, 131, 236, 131, 238, 131, 238, 131, 240, 131, 240, 131, 240, 131, 240, 131, 242, 131, 242, 131, 243, 131, 243, 131, 190, 136, 190, 136, 96, 147, 96, 147, 252, 159, 252, 159, 132, 175, 132, 175, 128, 196, 128, 196, 135, 243, 135, 243, 221, 57, 221, 57, 95, 79, 95, 79, 33, 95, 33, 95, 223, 107, 223, 107, 151, 118, 151, 118, 253, 123, 253, 123, 251, 123, 251, 123, 250, 123, 250, 123, 248, 123, 248, 123, 248, 123, 248, 123, 246, 123, 246, 123, 244, 123, 244, 123, 243, 123, 243, 123, 241, 123, 241, 123, 239, 123, 239, 123, 239, 123, 239, 123, 238, 123, 238, 123, 236, 123, 236, 123, 234, 123, 234, 123, 232, 123, 232, 123, 231, 123, 231, 123, 231, 123, 231, 123, 229, 123, 229, 123, 227, 123, 227, 123, 225, 123, 225, 123, 224, 123, 224, 123, 222, 123, 222, 123, 51, 121, 51, 121, 240, 110, 240, 110, 215, 98, 215, 98, 25, 84, 25, 84, 192, 64, 192, 64, 139, 31, 139, 31, 121, 204, 121, 204, 205, 180, 205, 180, 40, 164, 40, 164, 227, 150, 227, 150, 203, 139, 203, 139, 53, 132, 53, 132, 53, 132, 53, 132, 55, 132, 55, 132, 56, 132, 56, 132, 58, 132, 58, 132, 60, 132, 60, 132, 62, 132, 62, 132, 62, 132, 62, 132, 63, 132, 63, 132, 65, 132, 65, 132, 67, 132, 67, 132, 68, 132, 68, 132, 70, 132, 70, 132, 70, 132, 70, 132, 72, 132, 72, 132, 74, 132, 74, 132, 75, 132, 75, 132, 77, 132, 77, 132, 79, 132, 79, 132, 79, 132, 79, 132, 81, 132, 81, 132, 82, 132, 82, 132, 243, 132, 243, 132, 219, 142, 219, 142, 124, 154, 124, 154, 133, 168, 133, 168, 137, 186, 137, 186, 76, 214, 76, 214, 26, 44, 26, 44, 196, 70, 196, 70, 110, 88, 110, 88, 71, 102, 71, 102, 196, 113, 196, 113, 144, 123, 144, 123, 156, 123, 156, 123, 155, 123, 155, 123, 153, 123, 153, 123, 153, 123, 153, 123, 151, 123, 151, 123, 150, 123, 150, 123, 148, 123, 148, 123, 146, 123, 146, 123, 144, 123, 144, 123, 144, 123, 144, 123, 143, 123, 143, 123, 141, 123, 141, 123, 139, 123, 139, 123, 137, 123, 137, 123, 136, 123, 136, 123, 136, 123, 136, 123, 134, 123, 134, 123, 132, 123, 132, 123, 131, 123, 131, 123, 129, 123, 129, 123, 127, 123, 127, 123, 127, 123, 127, 123, 71, 115, 71, 115, 21, 104, 21, 104, 174, 90, 174, 90, 203, 73, 203, 73, 107, 49, 107, 49, 68, 221, 68, 221, 11, 190, 11, 190, 42, 171, 42, 171, 173, 156, 173, 156, 195, 144, 195, 144, 165, 134, 165, 134, 148, 132, 148, 132, 150, 132, 150, 132, 151, 132, 151, 132, 153, 132, 153, 132, 155, 132, 155, 132, 156, 132, 156, 132, 156, 132, 156, 132, 158, 132, 158, 132, 160, 132, 160, 132, 162, 132, 162, 132, 163, 132, 163, 132, 165, 132, 165, 132, 165, 132, 165, 132, 167, 132, 167, 132, 169, 132, 169, 132, 170, 132, 170, 132, 172, 132, 172, 132, 174, 132, 174, 132, 174, 132, 174, 132, 175, 132, 175, 132, 177, 132, 177, 132, 179, 132, 179, 132, 178, 138, 178, 138, 122, 149, 122, 149, 77, 162, 77, 162, 58, 178, 58, 178, 46, 200, 46, 200, 67, 20, 67, 20, 184, 60, 184, 60, 18, 81, 18, 81, 70, 96, 70, 96, 165, 108, 165, 108, 25, 119, 25, 119, 62, 123, 62, 123, 60, 123, 60, 123, 58, 123, 58, 123, 56, 123, 56, 123, 56, 123, 56, 123, 55, 123, 55, 123, 53, 123, 53, 123, 51, 123, 51, 123, 50, 123, 50, 123, 48, 123, 48, 123, 48, 123, 48, 123, 46, 123, 46, 123, 44, 123, 44, 123, 43, 123, 43, 123, 41, 123, 41, 123, 39, 123, 39, 123, 39, 123, 39, 123, 37, 123, 37, 123, 36, 123, 36, 123, 34, 123, 34, 123, 32, 123, 32, 123, 31, 123, 31, 123, 6, 119, 6, 119, 144, 108, 144, 108, 49, 96, 49, 96, 1, 81, 1, 81, 169, 60, 169, 60, 62, 20, 62, 20, 61, 200, 61, 200, 83, 178, 83, 178, 110, 162, 110, 162, 162, 149, 162, 149, 225, 138, 225, 138, 244, 132, 244, 132, 246, 132, 246, 132, 246, 132, 246, 132, 248, 132, 248, 132, 250, 132, 250, 132, 251, 132, 251, 132, 253, 132, 253, 132, 255, 132, 255, 132, 255, 132, 255, 132, 1, 133, 1, 133, 2, 133, 2, 133, 4, 133, 4, 133, 6, 133, 6, 133, 7, 133, 7, 133, 7, 133, 7, 133, 9, 133, 9, 133, 11, 133, 11, 133, 13, 133, 13, 133, 14, 133, 14, 133, 16, 133, 16, 133, 18, 133, 18, 133, 18, 133, 18, 133, 99, 135, 99, 135, 134, 145, 134, 145, 119, 157, 119, 157, 0, 172, 0, 172, 2, 191, 2, 191, 255, 222, 255, 222, 51, 50, 51, 50, 19, 74, 19, 74, 190, 90, 190, 90, 253, 103, 253, 103, 17, 115, 17, 115, 223, 122, 223, 122, 221, 122, 221, 122, 219, 122, 219, 122, 218, 122, 218, 122, 216, 122, 216, 122, 214, 122, 214, 122, 214, 122, 214, 122, 212, 122, 212, 122, 211, 122, 211, 122, 209, 122, 209, 122, 207, 122, 207, 122, 205, 122, 205, 122, 204, 122, 204, 122, 204, 122, 204, 122, 202, 122, 202, 122, 200, 122, 200, 122, 199, 122, 199, 122, 197, 122, 197, 122, 195, 122, 195, 122, 195, 122, 195, 122, 193, 122, 193, 122, 192, 122, 192, 122, 43, 122, 43, 122, 86, 112, 86, 112, 203, 100, 203, 100, 218, 86, 218, 86, 249, 68, 249, 68, 104, 41, 104, 41, 57, 212, 57, 212, 192, 185, 192, 185, 54, 168, 54, 168, 119, 154, 119, 154, 14, 143, 14, 143, 85, 133, 85, 133, 85, 133, 85, 133, 87, 133, 87, 133, 88, 133, 88, 133, 90, 133, 90, 133, 90, 133, 90, 133, 92, 133, 92, 133, 94, 133, 94, 133, 95, 133, 95, 133, 97, 133, 97, 133, 99, 133, 99, 133, 99, 133, 99, 133, 101, 133, 101, 133, 102, 133, 102, 133, 104, 133, 104, 133, 106, 133, 106, 133, 107, 133, 107, 133, 109, 133, 109, 133, 109, 133, 109, 133, 111, 133, 111, 133, 113, 133, 113, 133, 114, 133, 114, 133, 116, 133, 116, 133, 226, 141, 226, 141, 14, 153, 14, 153, 114, 166, 114, 166, 90, 183, 90, 183, 243, 207, 243, 207, 253, 35, 253, 35, 47, 66, 47, 66, 188, 84, 188, 84, 4, 99, 4, 99, 200, 110, 200, 110, 198, 120, 198, 120, 124, 122, 124, 122, 123, 122, 123, 122, 121, 122, 121, 122, 121, 122, 121, 122, 119, 122, 119, 122, 117, 122, 117, 122, 116, 122, 116, 122, 114, 122, 114, 122, 112, 122, 112, 122, 112, 122, 112, 122, 111, 122, 111, 122, 109, 122, 109, 122, 107, 122, 107, 122, 105, 122, 105, 122, 104, 122, 104, 122, 102, 122, 102, 122, 102, 122, 102, 122, 100, 122, 100, 122, 99, 122, 99, 122, 97, 122, 97, 122, 95, 122, 95, 122, 93, 122, 93, 122, 215, 115, 215, 115, 8, 105, 8, 105, 36, 92, 36, 92, 21, 76, 21, 76, 175, 53, 175, 53, 189, 230, 189, 230, 55, 194, 55, 194, 119, 174, 119, 174, 152, 159, 152, 159, 115, 147, 115, 147, 44, 137, 44, 137, 182, 133, 182, 133, 183, 133, 183, 133, 183, 133, 183, 133, 185, 133, 185, 133, 187, 133, 187, 133, 189, 133, 189, 133, 190, 133, 190, 133, 192, 133, 192, 133, 192, 133, 192, 133, 194, 133, 194, 133, 195, 133, 195, 133, 197, 133, 197, 133, 199, 133, 199, 133, 201, 133, 201, 133, 202, 133, 202, 133, 202, 133, 202, 133, 204, 133, 204, 133, 206, 133, 206, 133, 208, 133, 208, 133, 209, 133, 209, 133, 211, 133, 211, 133, 211, 133, 211, 133, 128, 138, 128, 138, 251, 148, 251, 148, 102, 161, 102, 161, 180, 176, 180, 176, 96, 197, 96, 197, 182, 243, 182, 243, 3, 57, 3, 57, 51, 78, 51, 78, 186, 93, 186, 93, 72, 106, 72, 106, 216, 116, 216, 116, 28, 122, 28, 122, 28, 122, 28, 122, 26, 122, 26, 122, 24, 122, 24, 122, 23, 122, 23, 122, 21, 122, 21, 122, 19, 122, 19, 122, 17, 122, 17, 122, 17, 122, 17, 122, 16, 122, 16, 122, 14, 122, 14, 122, 12, 122, 12, 122, 11, 122, 11, 122, 9, 122, 9, 122, 7, 122, 7, 122, 7, 122, 7, 122, 5, 122, 5, 122, 4, 122, 4, 122, 2, 122, 2, 122, 0, 122, 0, 122, 254, 121, 254, 121, 254, 121, 254, 121, 28, 119, 28, 119, 244, 108, 244, 108, 247, 96, 247, 96, 88, 82, 88, 82, 20, 63, 20, 63, 71, 29, 71, 29, 78, 204, 78, 204, 83, 181, 83, 181, 16, 165, 16, 165, 19, 152, 19, 152, 50, 141, 50, 141, 22, 134, 22, 134, 22, 134, 22, 134, 24, 134, 24, 134, 26, 134, 26, 134, 27, 134, 27, 134, 29, 134, 29, 134, 31, 134, 31, 134, 33, 134, 33, 134, 33, 134, 33, 134, 34, 134, 34, 134, 36, 134, 36, 134, 38, 134, 38, 134, 40, 134, 40, 134, 41, 134, 41, 134, 43, 134, 43, 134, 43, 134, 43, 134, 45, 134, 45, 134, 46, 134, 46, 134, 48, 134, 48, 134, 50, 134, 50, 134, 52, 134, 52, 134, 52, 134, 52, 134, 89, 135, 89, 135, 51, 145, 51, 145, 199, 156, 199, 156, 203, 170, 203, 170, 225, 188, 225, 188, 119, 217, 119, 217, 170, 45, 170, 45, 248, 70, 248, 70, 15, 88, 15, 88, 134, 101, 134, 101, 186, 112, 186, 112, 187, 121, 187, 121, 185, 121, 185, 121, 185, 121, 185, 121, 184, 121, 184, 121, 182, 121, 182, 121, 180, 121, 180, 121, 179, 121, 179, 121, 177, 121, 177, 121, 177, 121, 177, 121, 175, 121, 175, 121, 173, 121, 173, 121, 172, 121, 172, 121, 170, 121, 170, 121, 168, 121, 168, 121, 166, 121, 166, 121, 166, 121, 166, 121, 165, 121, 165, 121, 163, 121, 163, 121, 161, 121, 161, 121, 160, 121, 160, 121, 158, 121, 158, 121, 156, 121, 156, 121, 156, 121, 156, 121, 154, 112, 154, 112, 103, 101, 103, 101, 242, 87, 242, 87, 222, 70, 222, 70, 153, 45, 153, 45, 134, 217, 134, 217, 254, 188, 254, 188, 241, 170, 241, 170, 247, 156, 247, 156, 106, 145, 106, 145, 153, 135, 153, 135, 121, 134, 121, 134, 121, 134, 121, 134, 122, 134, 122, 134, 124, 134, 124, 134, 126, 134, 126, 134, 127, 134, 127, 134, 129, 134, 129, 134, 131, 134, 131, 134, 131, 134, 131, 134, 133, 134, 133, 134, 134, 134, 134, 134, 136, 134, 136, 134, 138, 134, 138, 134, 140, 134, 140, 134, 141, 134, 141, 134, 141, 134, 141, 134, 143, 134, 143, 134, 145, 134, 145, 134, 146, 134, 146, 134, 148, 134, 148, 134, 150, 134, 150, 134, 150, 134, 150, 134, 174, 141, 174, 141, 134, 152, 134, 152, 118, 165, 118, 165, 169, 181, 169, 181, 138, 204, 138, 204, 35, 29, 35, 29, 198, 62, 198, 62, 241, 81, 241, 81, 125, 96, 125, 96, 103, 108, 103, 108, 127, 118, 127, 118, 89, 121, 89, 121, 87, 121, 87, 121, 87, 121, 87, 121, 85, 121, 85, 121, 84, 121, 84, 121, 82, 121, 82, 121, 80, 121, 80, 121, 78, 121, 78, 121, 77, 121, 77, 121, 77, 121, 77, 121, 75, 121, 75, 121, 73, 121, 73, 121, 72, 121, 72, 121, 70, 121, 70, 121, 68, 121, 68, 121, 66, 121, 66, 121, 66, 121, 66, 121, 65, 121, 65, 121, 63, 121, 63, 121, 61, 121, 61, 121, 60, 121, 60, 121, 58, 121, 58, 121, 253, 115, 253, 115, 126, 105, 126, 105, 6, 93, 6, 93, 155, 77, 155, 77, 147, 56, 147, 56, 206, 243, 206, 243, 214, 197, 214, 197, 86, 177, 86, 177, 41, 162, 41, 162, 217, 149, 217, 149, 121, 139, 121, 139, 217, 134, 217, 134, 219, 134, 219, 134, 221, 134, 221, 134, 221, 134, 221, 134, 222, 134, 222, 134, 224, 134, 224, 134, 226, 134, 226, 134, 228, 134, 228, 134, 229, 134, 229, 134, 231, 134, 231, 134, 231, 134, 231, 134, 233, 134, 233, 134, 234, 134, 234, 134, 236, 134, 236, 134, 238, 134, 238, 134, 240, 134, 240, 134, 241, 134, 241, 134, 241, 134, 241, 134, 243, 134, 243, 134, 245, 134, 245, 134, 247, 134, 247, 134, 248, 134, 248, 134, 106, 138, 106, 138, 151, 148, 151, 148, 158, 160, 158, 160, 86, 175, 86, 175, 224, 194, 224, 194, 4, 231, 4, 231, 25, 53, 25, 53, 64, 75, 64, 75, 30, 91, 30, 91, 217, 103, 217, 103, 135, 114, 135, 114, 248, 120, 248, 120, 247, 120, 247, 120, 245, 120, 245, 120, 243, 120, 243, 120, 241, 120, 241, 120, 241, 120, 241, 120, 240, 120, 240, 120, 238, 120, 238, 120, 236, 120, 236, 120, 234, 120, 234, 120, 233, 120, 233, 120, 231, 120, 231, 120, 231, 120, 231, 120, 229, 120, 229, 120, 228, 120, 228, 120, 226, 120, 226, 120, 224, 120, 224, 120, 222, 120, 222, 120, 221, 120, 221, 120, 221, 120, 221, 120, 219, 120, 219, 120, 217, 120, 217, 120, 38, 119, 38, 119, 71, 109, 71, 109, 169, 97, 169, 97, 146, 83, 146, 83, 69, 65, 69, 65, 126, 35, 126, 35, 159, 208, 159, 208, 97, 184, 97, 184, 184, 167, 184, 167, 134, 154, 134, 154, 135, 143, 135, 143, 58, 135, 58, 135, 60, 135, 60, 135, 61, 135, 61, 135, 63, 135, 63, 135, 65, 135, 65, 135, 66, 135, 66, 135, 68, 135, 68, 135, 68, 135, 68, 135, 70, 135, 70, 135, 72, 135, 72, 135, 73, 135, 73, 135, 75, 135, 75, 135, 77, 135, 77, 135, 78, 135, 78, 135, 80, 135, 80, 135, 80, 135, 80, 135, 82, 135, 82, 135, 84, 135, 84, 135, 85, 135, 85, 135, 87, 135, 87, 135, 89, 135, 89, 135, 91, 135, 91, 135, 92, 135, 92, 135, 240, 144, 240, 144, 42, 156, 42, 156, 176, 169, 176, 169, 240, 186, 240, 186, 246, 212, 246, 212, 179, 40, 179, 40, 202, 67, 202, 67, 91, 85, 91, 85, 11, 99, 11, 99, 96, 110, 96, 110, 7, 120, 7, 120, 148, 120, 148, 120, 146, 120, 146, 120, 146, 120, 146, 120, 145, 120, 145, 120, 143, 120, 143, 120, 141, 120, 141, 120, 140, 120, 140, 120, 138, 120, 138, 120, 136, 120, 136, 120, 136, 120, 136, 120, 134, 120, 134, 120, 133, 120, 133, 120, 131, 120, 131, 120, 129, 120, 129, 120, 127, 120, 127, 120, 126, 120, 126, 120, 126, 120, 126, 120, 124, 120, 124, 120, 122, 120, 122, 120, 121, 120, 121, 120, 119, 120, 119, 120, 117, 120, 117, 120, 204, 112, 204, 112, 239, 101, 239, 101, 239, 88, 239, 88, 154, 72, 154, 72, 50, 49, 50, 49, 170, 223, 170, 223, 82, 192, 82, 192, 182, 173, 182, 173, 122, 159, 122, 159, 201, 147, 201, 147, 224, 137, 224, 137, 158, 135, 158, 135, 160, 135, 160, 135, 161, 135, 161, 135, 163, 135, 163, 135, 165, 135, 165, 135, 165, 135, 165, 135, 166, 135, 166, 135, 168, 135, 168, 135, 170, 135, 170, 135, 172, 135, 172, 135, 173, 135, 173, 135, 175, 135, 175, 135, 175, 135, 175, 135, 177, 135, 177, 135, 179, 135, 179, 135, 180, 135, 180, 135, 182, 135, 182, 135, 184, 135, 184, 135, 185, 135, 185, 135, 187, 135, 187, 135, 187, 135, 187, 135, 189, 135, 189, 135, 138, 141, 138, 141, 15, 152, 15, 152, 148, 164, 148, 164, 29, 180, 29, 180, 137, 201, 137, 201, 197, 19, 197, 19, 62, 59, 62, 59, 26, 79, 26, 79, 239, 93, 239, 93, 3, 106, 3, 106, 53, 116, 53, 116, 50, 120, 50, 120, 50, 120, 50, 120, 48, 120, 48, 120, 46, 120, 46, 120, 45, 120, 45, 120, 43, 120, 43, 120, 41, 120, 41, 120, 40, 120, 40, 120, 38, 120, 38, 120, 38, 120, 38, 120, 36, 120, 36, 120, 34, 120, 34, 120, 33, 120, 33, 120, 31, 120, 31, 120, 29, 120, 29, 120, 27, 120, 27, 120, 27, 120, 27, 120, 26, 120, 26, 120, 24, 120, 24, 120, 22, 120, 22, 120, 21, 120, 21, 120, 19, 120, 19, 120, 20, 116, 20, 116, 226, 105, 226, 105, 208, 93, 208, 93, 255, 78, 255, 78, 40, 59, 40, 59, 188, 19, 188, 19, 159, 201, 159, 201, 63, 180, 63, 180, 191, 164, 191, 164, 69, 152, 69, 152, 200, 141, 200, 141, 0, 136, 0, 136, 2, 136, 2, 136, 4, 136, 4, 136, 5, 136, 5, 136, 7, 136, 7, 136, 7, 136, 7, 136, 9, 136, 9, 136, 11, 136, 11, 136, 12, 136, 12, 136, 14, 136, 14, 136, 16, 136, 16, 136, 17, 136, 17, 136, 19, 136, 19, 136, 19, 136, 19, 136, 21, 136, 21, 136, 23, 136, 23, 136, 24, 136, 24, 136, 26, 136, 26, 136, 28, 136, 28, 136, 30, 136, 30, 136, 30, 136, 30, 136, 31, 136, 31, 136, 97, 138, 97, 138, 68, 148, 68, 148, 235, 159, 235, 159, 22, 174, 22, 174, 160, 192, 160, 192, 209, 223, 209, 223, 244, 48, 244, 48, 60, 72, 60, 72, 124, 88, 124, 88, 104, 101, 104, 101, 52, 112, 52, 112, 208, 119, 208, 119, 206, 119, 206, 119, 206, 119, 206, 119, 204, 119, 204, 119, 202, 119, 202, 119, 201, 119, 201, 119, 199, 119, 199, 119, 197, 119, 197, 119, 195, 119, 195, 119, 194, 119, 194, 119, 194, 119, 194, 119, 192, 119, 192, 119, 190, 119, 190, 119, 189, 119, 189, 119, 187, 119, 187, 119, 185, 119, 185, 119, 183, 119, 183, 119, 183, 119, 183, 119, 182, 119, 182, 119, 180, 119, 180, 119, 178, 119, 178, 119, 176, 119, 176, 119, 32, 119, 32, 119, 137, 109, 137, 109, 72, 98, 72, 98, 176, 84, 176, 84, 66, 67, 66, 67, 96, 40, 96, 40, 80, 213, 80, 213, 129, 187, 129, 187, 103, 170, 103, 170, 0, 157, 0, 157, 223, 145, 223, 145, 100, 136, 100, 136, 100, 136, 100, 136, 102, 136, 102, 136, 104, 136, 104, 136, 105, 136, 105, 136, 107, 136, 107, 136, 109, 136, 109, 136, 109, 136, 109, 136, 111, 136, 111, 136, 112, 136, 112, 136, 114, 136, 114, 136, 116, 136, 116, 136, 117, 136, 117, 136, 119, 136, 119, 136, 121, 136, 121, 136, 121, 136, 121, 136, 123, 136, 123, 136, 124, 136, 124, 136, 126, 136, 126, 136, 128, 136, 128, 136, 130, 136, 130, 136, 131, 136, 131, 136, 131, 136, 131, 136, 190, 144, 190, 144, 161, 155, 161, 155, 175, 168, 175, 168, 44, 185, 44, 185, 40, 209, 40, 209, 24, 35, 24, 35, 135, 64, 135, 64, 157, 82, 157, 82, 139, 96, 139, 96, 3, 108, 3, 108, 192, 117, 192, 117, 107, 119, 107, 119, 106, 119, 106, 119, 104, 119, 104, 119, 102, 119, 102, 119, 102, 119, 102, 119, 101, 119, 101, 119, 99, 119, 99, 119, 97, 119, 97, 119, 95, 119, 95, 119, 94, 119, 94, 119, 92, 119, 92, 119, 90, 119, 90, 119, 90, 119, 90, 119, 88, 119, 88, 119, 87, 119, 87, 119, 85, 119, 85, 119, 83, 119, 83, 119, 82, 119, 82, 119, 80, 119, 80, 119, 80, 119, 80, 119, 78, 119, 78, 119, 76, 119, 76, 119, 240, 112, 240, 112, 102, 102, 102, 102, 213, 89, 213, 89, 45, 74, 45, 74, 86, 52, 86, 52, 95, 231, 95, 231, 196, 195, 196, 195, 131, 176, 131, 176, 3, 162, 3, 162, 44, 150, 44, 150, 41, 140, 41, 140, 200, 136, 200, 136, 202, 136, 202, 136, 202, 136, 202, 136, 204, 136, 204, 136, 205, 136, 205, 136, 207, 136, 207, 136, 209, 136, 209, 136, 211, 136, 211, 136, 212, 136, 212, 136, 214, 136, 214, 136, 214, 136, 214, 136, 216, 136, 216, 136, 218, 136, 218, 136, 219, 136, 219, 136, 221, 136, 221, 136, 223, 136, 223, 136, 224, 136, 224, 136, 226, 136, 226, 136, 226, 136, 226, 136, 228, 136, 228, 136, 230, 136, 230, 136, 231, 136, 231, 136, 117, 141, 117, 141, 173, 151, 173, 151, 199, 163, 199, 163, 178, 178, 178, 178, 218, 198, 218, 198, 5, 244, 5, 244, 146, 55, 146, 55, 59, 76, 59, 76, 94, 91, 94, 91, 153, 103, 153, 103, 231, 113, 231, 113, 7, 119, 7, 119, 7, 119, 7, 119, 6, 119, 6, 119, 4, 119, 4, 119, 2, 119, 2, 119, 1, 119, 1, 119, 255, 118, 255, 118, 253, 118, 253, 118, 251, 118, 251, 118, 251, 118, 251, 118, 250, 118, 250, 118, 248, 118, 248, 118, 246, 118, 246, 118, 244, 118, 244, 118, 243, 118, 243, 118, 241, 118, 241, 118, 239, 118, 239, 118, 239, 118, 239, 118, 238, 118, 238, 118, 236, 118, 236, 118, 234, 118, 234, 118, 234, 118, 234, 118, 26, 105, 26, 105, 142, 84, 142, 84, 204, 62, 204, 62, 35, 39, 35, 39 )

