[gd_resource type="AudioStreamSample" format=2]

[resource]

format = 1
loop_mode = 0
loop_begin = 0
loop_end = 0
mix_rate = 44100
stereo = false
data = PoolByteArray( 30, 4, 117, 4, 198, 4, 17, 5, 83, 5, 140, 5, 184, 5, 217, 5, 236, 5, 241, 5, 233, 5, 211, 5, 175, 5, 127, 5, 68, 5, 254, 4, 176, 4, 91, 4, 0, 4, 163, 3, 68, 3, 230, 2, 138, 2, 50, 2, 223, 1, 146, 1, 75, 1, 12, 1, 213, 0, 166, 0, 126, 0, 93, 0, 66, 0, 46, 0, 30, 0, 19, 0, 11, 0, 6, 0, 3, 0, 1, 0, 1, 0, 0, 0, 0, 0, 0, 0, 0, 0, 0, 0, 0, 0, 0, 0, 0, 0, 255, 255, 254, 255, 252, 255, 249, 255, 243, 255, 233, 255, 219, 255, 199, 255, 171, 255, 135, 255, 89, 255, 32, 255, 218, 254, 135, 254, 37, 254, 181, 253, 54, 253, 169, 252, 16, 252, 106, 251, 188, 250, 6, 250, 75, 249, 143, 248, 213, 247, 33, 247, 117, 246, 215, 245, 73, 245, 207, 244, 107, 244, 31, 244, 239, 243, 217, 243, 224, 243, 4, 244, 68, 244, 157, 244, 15, 245, 150, 245, 48, 246, 217, 246, 142, 247, 75, 248, 11, 249, 203, 249, 137, 250, 64, 251, 238, 251, 144, 252, 37, 253, 171, 253, 34, 254, 137, 254, 224, 254, 41, 255, 100, 255, 146, 255, 182, 255, 208, 255, 227, 255, 239, 255, 247, 255, 252, 255, 254, 255, 255, 255, 0, 0, 0, 0, 0, 0, 0, 0, 0, 0, 0, 0, 0, 0, 1, 0, 2, 0, 5, 0, 10, 0, 19, 0, 34, 0, 57, 0, 90, 0, 135, 0, 195, 0, 17, 1, 116, 1, 237, 1, 127, 2, 43, 3, 242, 3, 213, 4, 210, 5, 233, 6, 22, 8, 88, 9, 167, 10, 2, 12, 98, 13, 192, 14, 22, 16, 94, 17, 145, 18, 167, 19, 155, 20, 102, 21, 6, 22, 117, 22, 176, 22, 183, 22, 137, 22, 38, 22, 145, 21, 206, 20, 223, 19, 205, 18, 155, 17, 82, 16, 247, 14, 145, 13, 41, 12, 196, 10, 105, 9, 29, 8, 230, 6, 197, 5, 192, 4, 214, 3, 10, 3, 92, 2, 201, 1, 80, 1, 240, 0, 166, 0, 110, 0, 69, 0, 41, 0, 23, 0, 11, 0, 5, 0, 2, 0, 1, 0, 0, 0, 0, 0, 0, 0, 0, 0, 0, 0, 0, 0, 255, 255, 254, 255, 250, 255, 243, 255, 231, 255, 209, 255, 176, 255, 128, 255, 59, 255, 222, 254, 99, 254, 199, 253, 5, 253, 24, 252, 255, 250, 183, 249, 63, 248, 152, 246, 195, 244, 196, 242, 162, 240, 96, 238, 9, 236, 165, 233, 63, 231, 226, 228, 155, 226, 116, 224, 120, 222, 181, 220, 53, 219, 255, 217, 25, 217, 142, 216, 91, 216, 134, 216, 14, 217, 238, 217, 34, 219, 164, 220, 105, 222, 105, 224, 152, 226, 233, 228, 82, 231, 196, 233, 53, 236, 154, 238, 232, 240, 23, 243, 30, 245, 250, 246, 165, 248, 30, 250, 100, 251, 121, 252, 94, 253, 23, 254, 169, 254, 24, 255, 106, 255, 164, 255, 204, 255, 228, 255, 243, 255, 251, 255, 254, 255, 0, 0, 0, 0, 0, 0, 0, 0, 0, 0, 0, 0, 0, 0, 2, 0, 6, 0, 14, 0, 31, 0, 59, 0, 103, 0, 171, 0, 13, 1, 148, 1, 71, 2, 48, 3, 84, 4, 187, 5, 107, 7, 102, 9, 177, 11, 75, 14, 49, 17, 95, 20, 206, 23, 115, 27, 66, 31, 46, 35, 36, 39, 20, 43, 233, 46, 144, 50, 245, 53, 7, 57, 178, 59, 234, 61, 157, 63, 195, 64, 87, 65, 79, 65, 178, 64, 126, 63, 186, 61, 116, 59, 182, 56, 145, 53, 25, 50, 92, 46, 113, 42, 110, 38, 101, 34, 103, 30, 138, 26, 217, 22, 100, 19, 52, 16, 81, 13, 191, 10, 129, 8, 149, 6, 249, 4, 169, 3, 156, 2, 204, 1, 48, 1, 191, 0, 113, 0, 63, 0, 31, 0, 14, 0, 5, 0, 2, 0, 0, 0, 0, 0, 0, 0, 0, 0, 0, 0, 0, 0, 254, 255, 250, 255, 241, 255, 222, 255, 187, 255, 130, 255, 41, 255, 166, 254, 238, 253, 245, 252, 173, 251, 12, 250, 7, 248, 146, 245, 167, 242, 65, 239, 94, 235, 1, 231, 46, 226, 238, 220, 82, 215, 106, 209, 75, 203, 17, 197, 210, 190, 177, 184, 203, 178, 63, 173, 42, 168, 171, 163, 216, 159, 207, 156, 155, 154, 78, 153, 237, 152, 124, 153, 251, 154, 97, 157, 158, 160, 160, 164, 77, 169, 143, 174, 72, 180, 87, 186, 156, 192, 246, 198, 74, 205, 121, 211, 108, 217, 9, 223, 64, 228, 4, 233, 74, 237, 14, 241, 78, 244, 15, 247, 85, 249, 44, 251, 158, 252, 184, 253, 135, 254, 26, 255, 124, 255, 186, 255, 223, 255, 242, 255, 251, 255, 255, 255, 0, 0, 0, 0, 0, 0, 0, 0, 0, 0, 1, 0, 5, 0, 14, 0, 34, 0, 73, 0, 139, 0, 244, 0, 145, 1, 114, 2, 165, 3, 59, 5, 67, 7, 205, 9, 228, 12, 146, 16, 221, 20, 199, 25, 78, 31, 103, 37, 9, 44, 29, 51, 140, 58, 63, 66, 13, 74, 218, 81, 127, 89, 211, 96, 175, 103, 235, 109, 107, 115, 11, 120, 175, 123, 64, 126, 181, 127, 255, 127, 32, 127, 30, 125, 252, 121, 217, 117, 196, 112, 228, 106, 80, 100, 54, 93, 180, 85, 247, 77, 36, 70, 96, 62, 203, 54, 132, 47, 168, 40, 73, 34, 118, 28, 62, 23, 164, 18, 168, 14, 70, 11, 119, 8, 48, 6, 98, 4, 0, 3, 248, 1, 59, 1, 186, 0, 102, 0, 51, 0, 22, 0, 8, 0, 2, 0, 0, 0, 0, 0, 0, 0, 0, 0, 0, 0, 0, 0, 254, 255, 248, 255, 234, 255, 205, 255, 154, 255, 70, 255, 197, 254, 8, 254, 0, 253, 158, 251, 208, 249, 137, 247, 186, 244, 88, 241, 92, 237, 194, 232, 138, 227, 183, 221, 88, 215, 124, 208, 53, 201, 160, 193, 220, 185, 9, 178, 76, 170, 202, 162, 176, 155, 28, 149, 60, 143, 39, 138, 4, 134, 226, 130, 224, 128, 0, 128, 75, 128, 192, 129, 81, 132, 245, 135, 149, 140, 21, 146, 81, 152, 45, 159, 129, 166, 38, 174, 243, 181, 193, 189, 116, 197, 227, 204, 247, 211, 153, 218, 178, 224, 57, 230, 35, 235, 110, 239, 28, 243, 51, 246, 189, 248, 197, 250, 91, 252, 142, 253, 111, 254, 12, 255, 117, 255, 183, 255, 222, 255, 242, 255, 251, 255, 255, 255, 0, 0, 0, 0, 0, 0, 0, 0, 0, 0, 1, 0, 5, 0, 14, 0, 34, 0, 73, 0, 139, 0, 244, 0, 145, 1, 114, 2, 165, 3, 59, 5, 67, 7, 205, 9, 228, 12, 146, 16, 221, 20, 199, 25, 78, 31, 103, 37, 9, 44, 29, 51, 140, 58, 63, 66, 13, 74, 218, 81, 127, 89, 211, 96, 175, 103, 235, 109, 107, 115, 11, 120, 175, 123, 64, 126, 181, 127, 255, 127, 32, 127, 30, 125, 252, 121, 217, 117, 196, 112, 228, 106, 80, 100, 54, 93, 180, 85, 247, 77, 36, 70, 96, 62, 203, 54, 132, 47, 168, 40, 73, 34, 118, 28, 62, 23, 164, 18, 168, 14, 70, 11, 119, 8, 48, 6, 98, 4, 0, 3, 248, 1, 59, 1, 186, 0, 102, 0, 51, 0, 22, 0, 8, 0, 2, 0, 0, 0, 0, 0, 0, 0, 0, 0, 0, 0, 0, 0, 254, 255, 248, 255, 234, 255, 205, 255, 154, 255, 70, 255, 197, 254, 8, 254, 0, 253, 158, 251, 208, 249, 137, 247, 186, 244, 88, 241, 92, 237, 194, 232, 138, 227, 183, 221, 88, 215, 124, 208, 53, 201, 160, 193, 220, 185, 9, 178, 76, 170, 202, 162, 176, 155, 28, 149, 60, 143, 39, 138, 4, 134, 226, 130, 224, 128, 0, 128, 75, 128, 192, 129, 81, 132, 245, 135, 149, 140, 21, 146, 81, 152, 45, 159, 129, 166, 38, 174, 243, 181, 193, 189, 116, 197, 227, 204, 247, 211, 153, 218, 178, 224, 57, 230, 35, 235, 110, 239, 28, 243, 51, 246, 189, 248, 197, 250, 91, 252, 142, 253, 111, 254, 12, 255, 117, 255, 183, 255, 222, 255, 242, 255, 251, 255, 255, 255, 0, 0, 0, 0, 0, 0, 0, 0, 0, 0, 1, 0, 5, 0, 14, 0, 34, 0, 73, 0, 139, 0, 244, 0, 145, 1, 114, 2, 165, 3, 59, 5, 67, 7, 205, 9, 228, 12, 146, 16, 221, 20, 199, 25, 78, 31, 103, 37, 9, 44, 29, 51, 140, 58, 63, 66, 13, 74, 218, 81, 127, 89, 211, 96, 175, 103, 235, 109, 107, 115, 11, 120, 175, 123, 64, 126, 181, 127, 255, 127, 32, 127, 30, 125, 252, 121, 217, 117, 196, 112, 228, 106, 80, 100, 54, 93, 180, 85, 247, 77, 36, 70, 96, 62, 203, 54, 132, 47, 168, 40, 73, 34, 118, 28, 62, 23, 164, 18, 168, 14, 70, 11, 119, 8, 48, 6, 98, 4, 0, 3, 248, 1, 59, 1, 186, 0, 102, 0, 51, 0, 22, 0, 8, 0, 2, 0, 0, 0, 0, 0, 0, 0, 0, 0, 0, 0, 0, 0, 254, 255, 248, 255, 234, 255, 205, 255, 154, 255, 70, 255, 197, 254, 8, 254, 0, 253, 158, 251, 208, 249, 137, 247, 186, 244, 88, 241, 92, 237, 194, 232, 138, 227, 183, 221, 88, 215, 124, 208, 53, 201, 160, 193, 220, 185, 9, 178, 76, 170, 202, 162, 176, 155, 28, 149, 60, 143, 39, 138, 4, 134, 226, 130, 224, 128, 0, 128, 75, 128, 192, 129, 81, 132, 245, 135, 149, 140, 21, 146, 81, 152, 45, 159, 129, 166, 38, 174, 243, 181, 193, 189, 116, 197, 227, 204, 247, 211, 153, 218, 178, 224, 57, 230, 35, 235, 110, 239, 28, 243, 51, 246, 189, 248, 197, 250, 91, 252, 142, 253, 111, 254, 12, 255, 117, 255, 183, 255, 222, 255, 242, 255, 251, 255, 255, 255, 0, 0, 0, 0, 0, 0, 0, 0, 0, 0, 1, 0, 5, 0, 14, 0, 33, 0, 70, 0, 133, 0, 233, 0, 125, 1, 79, 2, 108, 3, 226, 4, 190, 6, 12, 9, 213, 11, 31, 15, 238, 18, 65, 23, 18, 28, 90, 33, 7, 39, 13, 45, 79, 51, 181, 57, 36, 64, 123, 70, 156, 76, 102, 82, 185, 87, 116, 92, 131, 96, 200, 99, 53, 102, 188, 103, 80, 104, 238, 103, 157, 102, 96, 100, 76, 97, 112, 93, 226, 88, 193, 83, 35, 78, 43, 72, 246, 65, 167, 59, 88, 53, 39, 47, 45, 41, 126, 35, 48, 30, 77, 25, 226, 20, 243, 16, 130, 13, 143, 10, 18, 8, 7, 6, 96, 4, 21, 3, 24, 2, 94, 1, 218, 0, 127, 0, 69, 0, 34, 0, 15, 0, 6, 0, 2, 0, 0, 0, 0, 0, 0, 0, 0, 0, 0, 0, 0, 0, 254, 255, 251, 255, 242, 255, 224, 255, 193, 255, 141, 255, 63, 255, 204, 254, 47, 254, 92, 253, 76, 252, 247, 250, 85, 249, 100, 247, 30, 245, 132, 242, 151, 239, 92, 236, 219, 232, 31, 229, 53, 225, 43, 221, 20, 217, 1, 213, 12, 209, 67, 205, 189, 201, 141, 198, 198, 195, 121, 193, 177, 191, 119, 190, 213, 189, 208, 189, 99, 190, 142, 191, 70, 193, 132, 195, 57, 198, 86, 201, 199, 204, 122, 208, 91, 212, 87, 216, 90, 220, 84, 224, 48, 228, 225, 231, 92, 235, 149, 238, 132, 241, 39, 244, 121, 246, 124, 248, 49, 250, 157, 251, 197, 252, 177, 253, 103, 254, 239, 254, 82, 255, 151, 255, 197, 255, 225, 255, 242, 255, 250, 255, 254, 255, 0, 0, 0, 0, 0, 0, 0, 0, 0, 0, 0, 0, 0, 0, 2, 0, 6, 0, 13, 0, 28, 0, 53, 0, 93, 0, 152, 0, 235, 0, 92, 1, 239, 1, 171, 2, 148, 3, 172, 4, 247, 5, 117, 7, 39, 9, 9, 11, 24, 13, 79, 15, 165, 17, 18, 20, 141, 22, 8, 25, 121, 27, 211, 29, 10, 32, 17, 34, 222, 35, 101, 37, 158, 38, 130, 39, 11, 40, 55, 40, 5, 40, 118, 39, 142, 38, 84, 37, 206, 35, 4, 34, 2, 32, 211, 29, 130, 27, 29, 25, 174, 22, 66, 20, 226, 17, 152, 15, 110, 13, 103, 11, 140, 9, 222, 7, 97, 6, 20, 5, 246, 3, 7, 3, 65, 2, 163, 1, 39, 1, 200, 0, 130, 0, 81, 0, 47, 0, 26, 0, 13, 0, 6, 0, 2, 0, 1, 0, 0, 0, 0, 0, 0, 0, 0, 0, 0, 0, 0, 0, 255, 255, 254, 255, 251, 255, 244, 255, 233, 255, 214, 255, 186, 255, 145, 255, 88, 255, 12, 255, 170, 254, 48, 254, 155, 253, 233, 252, 26, 252, 45, 251, 36, 250, 255, 248, 194, 247, 113, 246, 16, 245, 166, 243, 56, 242, 205, 240, 108, 239, 29, 238, 230, 236, 207, 235, 221, 234, 22, 234, 128, 233, 26, 233, 236, 232, 242, 232, 47, 233, 159, 233, 65, 234, 16, 235, 8, 236, 34, 237, 89, 238, 166, 239, 2, 241, 102, 242, 203, 243, 44, 245, 129, 246, 199, 247, 250, 248, 21, 250, 23, 251, 253, 251, 200, 252, 119, 253, 11, 254, 134, 254, 234, 254, 58, 255, 119, 255, 165, 255, 198, 255, 221, 255, 236, 255, 246, 255, 251, 255, 254, 255, 255, 255, 0, 0, 0, 0, 0, 0, 0, 0, 0, 0, 0, 0, 0, 0, 1, 0, 2, 0, 4, 0, 9, 0, 17, 0, 30, 0, 49, 0, 76, 0, 112, 0, 159, 0, 219, 0, 37, 1, 126, 1, 231, 1, 95, 2, 232, 2, 127, 3, 36, 4, 214, 4, 144, 5, 81, 6, 21, 7, 217, 7, 153, 8, 81, 9, 253, 9, 154, 10, 36, 11, 152, 11, 243, 11, 52, 12, 88, 12, 95, 12, 75, 12, 25, 12, 204, 11, 102, 11, 233, 10, 89, 10, 183, 9, 9, 9, 82, 8, 148, 7, 213, 6, 23, 6, 94, 5, 171, 4, 3, 4, 103, 3, 215, 2, 86, 2, 228, 1, 129, 1, 44, 1, 228, 0, 170, 0, 123, 0, 86, 0, 58, 0, 38, 0, 24, 0, 14, 0, 7, 0, 4, 0, 2, 0, 1, 0, 0, 0, 0, 0, 0, 0, 0, 0, 0, 0, 0, 0, 0, 0, 0, 0, 255, 255, 255, 255, 253, 255, 250, 255, 244, 255, 236, 255, 225, 255, 209, 255, 188, 255, 161, 255, 128, 255, 87, 255, 39, 255, 238, 254, 174, 254, 102, 254, 23, 254, 194, 253, 104, 253, 10, 253, 170, 252, 74, 252, 235, 251, 143, 251, 55, 251, 231, 250, 160, 250, 99, 250, 50, 250, 14, 250, 247, 249, 239, 249, 244, 249, 8, 250, 41, 250, 87, 250, 144, 250, 212, 250, 32, 251, 115, 251, 204, 251 )

