[gd_resource type="AudioStreamSample" format=2]

[resource]

format = 1
loop_mode = 0
loop_begin = 0
loop_end = 0
mix_rate = 44100
stereo = true
data = PoolByteArray( 52, 7, 99, 14, 134, 21, 151, 28, 146, 35, 111, 42, 42, 49, 189, 55, 35, 62, 86, 68, 82, 74, 17, 80, 144, 85, 201, 90, 184, 95, 90, 100, 170, 104, 165, 108, 72, 112, 144, 115, 123, 118, 5, 121, 44, 123, 240, 124, 78, 126, 70, 127, 215, 127, 255, 127, 192, 127, 25, 127, 11, 126, 151, 124, 190, 122, 128, 120, 225, 117, 227, 114, 135, 111, 209, 107, 195, 103, 97, 99, 174, 94, 174, 89, 102, 84, 217, 78, 12, 73, 4, 67, 197, 60, 85, 54, 185, 47, 246, 40, 18, 34, 18, 27, 253, 19, 215, 12, 166, 5, 113, 254, 62, 247, 17, 240, 242, 232, 229, 225, 240, 218, 26, 212, 103, 205, 221, 198, 130, 192, 90, 186, 107, 180, 185, 174, 73, 169, 32, 164, 65, 159, 177, 154, 114, 150, 138, 146, 250, 142, 198, 139, 241, 136, 124, 134, 106, 132, 188, 130, 115, 129, 146, 128, 24, 128, 5, 128, 91, 128, 24, 129, 60, 130, 199, 131, 182, 133, 8, 136, 188, 138, 207, 141, 63, 145, 8, 149, 41, 153, 157, 157, 96, 162, 112, 167, 200, 172, 99, 178, 61, 184, 81, 190, 155, 196, 21, 203, 186, 209, 132, 216, 111, 223, 116, 230, 142, 237, 182, 244, 232, 251, 29, 3, 80, 10, 122, 17, 150, 24, 158, 31, 141, 38, 92, 45, 6, 52, 134, 58, 215, 64, 243, 70, 213, 76, 121, 82, 218, 87, 244, 92, 194, 97, 65, 102, 109, 106, 67, 110, 191, 113, 222, 116, 159, 119, 255, 121, 252, 123, 148, 125, 198, 126, 145, 127, 245, 127, 241, 127, 133, 127, 177, 126, 119, 125, 215, 123, 210, 121, 106, 119, 162, 116, 123, 113, 247, 109, 27, 106, 232, 101, 99, 97, 142, 92, 111, 87, 8, 82, 95, 76, 120, 70, 87, 64, 3, 58, 127, 51, 210, 44, 0, 38, 15, 31, 5, 24, 232, 16, 189, 9, 138, 2, 84, 251, 35, 244, 251, 236, 227, 229, 224, 222, 248, 215, 48, 209, 143, 202, 24, 196, 211, 189, 195, 183, 238, 177, 88, 172, 6, 167, 252, 161, 62, 157, 209, 152, 183, 148, 245, 144, 141, 141, 129, 138, 213, 135, 139, 133, 164, 131, 33, 130, 5, 129, 80, 128, 3, 128, 30, 128, 160, 128, 138, 129, 218, 130, 144, 132, 171, 134, 39, 137, 5, 140, 64, 143, 215, 146, 198, 150, 11, 155, 162, 159, 135, 164, 182, 169, 44, 175, 227, 180, 214, 186, 2, 193, 98, 199, 239, 205, 165, 212, 126, 219, 116, 226, 131, 233, 164, 240, 209, 247, 5, 255, 58, 6, 105, 13, 142, 20, 162, 27, 160, 34, 130, 41, 66, 48, 218, 54, 71, 61, 129, 67, 133, 73, 77, 79, 212, 84, 23, 90, 17, 95, 189, 99, 25, 104, 32, 108, 207, 111, 36, 115, 27, 118, 178, 120, 231, 122, 185, 124, 37, 126, 43, 127, 201, 127, 255, 127, 207, 127, 54, 127, 54, 126, 208, 124, 4, 123, 212, 120, 66, 118, 81, 115, 1, 112, 87, 108, 85, 104, 254, 99, 86, 95, 97, 90, 34, 85, 158, 79, 217, 73, 217, 67, 161, 61, 56, 55, 161, 48, 228, 41, 4, 35, 7, 28, 244, 20, 208, 13, 161, 6, 108, 255, 56, 248, 10, 241, 233, 233, 217, 226, 225, 219, 6, 213, 78, 206, 190, 199, 93, 193, 46, 187, 54, 181, 124, 175, 3, 170, 207, 164, 230, 159, 75, 155, 1, 151, 13, 147, 113, 143, 48, 140, 78, 137, 204, 134, 172, 132, 240, 130, 154, 129, 170, 128, 34, 128, 2, 128, 73, 128, 248, 128, 15, 130, 139, 131, 109, 133, 178, 135, 88, 138, 95, 141, 194, 144, 127, 148, 148, 152, 253, 156, 182, 161, 187, 166, 10, 172, 156, 177, 110, 183, 122, 189, 189, 195, 49, 202, 208, 208, 150, 215, 124, 222, 126, 229, 149, 236, 188, 243, 237, 250, 34, 2, 85, 9, 129, 16, 160, 23, 171, 30, 157, 37, 113, 44, 32, 51, 166, 57, 254, 63, 33, 70, 12, 76, 185, 81, 35, 87, 71, 92, 31, 97, 169, 101, 225, 105, 194, 109, 75, 113, 119, 116, 69, 119, 178, 121, 188, 123, 98, 125, 162, 126, 124, 127, 238, 127, 248, 127, 154, 127, 212, 126, 168, 125, 21, 124, 30, 122, 196, 119, 8, 117, 238, 113, 119, 110, 166, 106, 127, 102, 5, 98, 59, 93, 37, 88, 200, 82, 40, 77, 73, 71, 48, 65, 226, 58, 100, 52, 188, 45, 239, 38, 2, 32, 251, 24, 224, 17, 183, 10, 132, 3, 79, 252, 29, 245, 244, 237, 217, 230, 211, 223, 231, 216, 26, 210, 115, 203, 247, 196, 170, 190, 147, 184, 181, 178, 22, 173, 187, 167, 167, 162, 223, 157, 102, 153, 65, 149, 115, 145, 254, 141, 230, 138, 45, 136, 213, 133, 224, 131, 80, 130, 38, 129, 99, 128, 8, 128, 20, 128, 136, 128, 100, 129, 167, 130, 79, 132, 92, 134, 203, 136, 155, 139, 202, 142, 84, 146, 56, 150, 114, 154, 253, 158, 216, 163, 253, 168, 106, 174, 24, 180, 4, 186, 40, 192, 129, 198, 8, 205, 185, 211, 141, 218, 128, 225, 140, 232, 171, 239, 215, 246, 10, 254, 63, 5, 112, 12, 150, 19, 173, 26, 174, 33, 148, 40, 89, 47, 247, 53, 106, 60, 171, 66, 183, 72, 135, 78, 24, 84, 100, 89, 104, 94, 31, 99, 134, 103, 153, 107, 84, 111, 181, 114, 185, 117, 93, 120, 160, 122, 127, 124, 249, 125, 13, 127, 186, 127, 255, 127, 220, 127, 81, 127, 95, 126, 6, 125, 72, 123, 38, 121, 162, 118, 189, 115, 122, 112, 220, 108, 230, 104, 154, 100, 253, 95, 18, 91, 221, 85, 98, 80, 166, 74, 173, 68, 125, 62, 26, 56, 137, 49, 208, 42, 245, 35, 252, 28, 236, 21, 202, 14, 156, 7, 103, 0, 51, 249, 4, 242, 224, 234, 205, 227, 210, 220, 243, 213, 54, 207, 160, 200, 56, 194, 2, 188, 3, 182, 64, 176, 189, 170, 128, 165, 141, 160, 230, 155, 146, 151, 145, 147, 233, 143, 156, 140, 173, 137, 29, 135, 240, 132, 39, 131, 195, 129, 197, 128, 47, 128, 0, 128, 57, 128, 219, 128, 227, 129, 81, 131, 37, 133, 93, 135, 246, 137, 240, 140, 70, 144, 248, 147, 1, 152, 94, 156, 13, 161, 8, 166, 77, 171, 214, 176, 159, 182, 164, 188, 224, 194, 78, 201, 231, 207, 168, 214, 138, 221, 137, 228, 157, 235, 194, 242, 242, 249, 39, 1, 91, 8, 136, 15, 169, 22, 183, 29, 173, 36, 133, 43, 58, 50, 198, 56, 36, 63, 79, 69, 65, 75, 247, 80, 106, 86, 152, 91, 123, 96, 16, 101, 83, 105, 64, 109, 213, 112, 14, 116, 233, 118, 99, 121, 123, 123, 47, 125, 125, 126, 100, 127, 228, 127, 252, 127, 172, 127, 245, 126, 215, 125, 82, 124, 104, 122, 28, 120, 109, 117, 96, 114, 245, 110, 48, 107, 21, 103, 165, 98, 230, 93, 219, 88, 135, 83, 239, 77, 25, 72, 7, 66, 192, 59, 73, 53, 166, 46, 222, 39, 245, 32, 241, 25, 217, 18, 177, 11, 127, 4, 74, 253, 23, 246, 236, 238, 207, 231, 198, 224, 214, 217, 5, 211, 88, 204, 214, 197, 130, 191, 99, 185, 126, 179, 214, 173, 113, 168, 83, 163, 129, 158, 253, 153, 205, 149, 242, 145, 113, 142, 76, 139, 134, 136, 32, 134, 30, 132, 128, 130, 72, 129, 119, 128, 14, 128, 12, 128, 114, 128, 64, 129, 117, 130, 15, 132, 14, 134, 112, 136, 52, 139, 86, 142, 212, 145, 172, 149, 217, 153, 90, 158, 43, 163, 70, 168, 169, 173, 78, 179, 50, 185, 79, 191, 161, 197, 34, 204, 206, 210, 158, 217, 141, 224, 149, 231, 178, 238, 220, 245, 15, 253, 68, 4, 118, 11, 158, 18, 183, 25, 188, 32, 166, 39, 111, 46, 19, 53, 140, 59, 213, 65, 232, 71, 192, 77, 90, 83, 176, 88, 190, 93, 128, 98, 242, 102, 16, 107, 215, 110, 69, 114, 86, 117, 7, 120, 87, 122, 68, 124, 204, 125, 237, 126, 168, 127, 251, 127, 231, 127, 106, 127, 134, 126, 59, 125, 139, 123, 118, 121, 255, 118, 39, 116, 241, 112, 95, 109, 117, 105, 52, 101, 162, 96, 193, 91, 150, 86, 37, 81, 113, 75, 128, 69, 87, 63, 251, 56, 112, 50, 189, 43, 229, 36, 240, 29, 227, 22, 195, 15, 150, 8, 98, 1, 46, 250, 253, 242, 216, 235, 195, 228, 195, 221, 224, 214, 30, 208, 131, 201, 20, 195, 215, 188, 208, 182, 4, 177, 121, 171, 50, 166, 52, 161, 132, 156, 35, 152, 24, 148, 99, 144, 10, 141, 13, 138, 113, 135, 54, 133, 95, 131, 237, 129, 225, 128, 61, 128, 0, 128, 44, 128, 191, 128, 185, 129, 26, 131, 224, 132, 10, 135, 150, 137, 131, 140, 205, 143, 114, 147, 111, 151, 194, 155, 101, 160, 86, 165, 145, 170, 17, 176, 210, 181, 208, 187, 4, 194, 107, 200, 255, 206, 187, 213, 153, 220, 148, 227, 166, 234, 201, 241, 248, 248, 44, 0, 97, 7, 143, 14, 177, 21, 194, 28, 188, 35, 153, 42, 83, 49, 229, 55, 73, 62, 123, 68, 118, 74, 52, 80, 177, 85, 232, 90, 214, 95, 117, 100, 196, 104, 189, 108, 94, 112, 163, 115, 139, 118, 19, 121, 56, 123, 250, 124, 85, 126, 75, 127, 217, 127, 255, 127, 189, 127, 20, 127, 4, 126, 141, 124, 177, 122, 113, 120, 208, 117, 207, 114, 113, 111, 185, 107, 169, 103, 69, 99, 144, 94, 143, 89, 68, 84, 182, 78, 231, 72, 222, 66, 158, 60, 45, 54, 144, 47, 204, 40, 231, 33, 231, 26, 209, 19, 171, 12, 122, 5, 69, 254, 18, 247, 229, 239, 198, 232, 186, 225, 198, 218, 240, 211, 63, 205, 182, 198, 92, 192, 53, 186, 72, 180, 151, 174, 41, 169, 1, 164, 36, 159, 150, 154, 89, 150, 115, 146, 230, 142, 180, 139, 225, 136, 110, 134, 94, 132, 179, 130, 109, 129, 142, 128, 22, 128, 6, 128, 94, 128, 30, 129, 69, 130, 209, 131, 195, 133, 24, 136, 206, 138, 227, 141, 85, 145, 33, 149, 67, 153, 185, 157, 126, 162, 144, 167, 233, 172, 134, 178, 98, 184, 119, 190, 194, 196, 61, 203, 227, 209, 174, 216, 154, 223, 159, 230, 185, 237, 226, 244, 20, 252, 73, 3, 124, 10, 166, 17, 193, 24, 201, 31, 183, 38, 133, 45, 46, 52, 173, 58, 253, 64, 23, 71, 248, 76, 155, 82, 250, 87, 18, 93, 223, 97, 92, 102, 134, 106, 89, 110, 211, 113, 240, 116, 175, 119, 12, 122, 7, 124, 156, 125, 204, 126, 149, 127, 246, 127, 239, 127, 129, 127, 171, 126, 110, 125, 204, 123, 196, 121, 90, 119, 144, 116, 102, 113, 225, 109, 2, 106, 205, 101, 70, 97, 112, 92, 78, 87, 230, 81, 59, 76, 83, 70, 49, 64, 219, 57, 87, 51, 168, 44, 213, 37, 228, 30, 218, 23, 188, 16, 144, 9, 93, 2, 40, 251, 247, 243, 208, 236, 184, 229, 182, 222, 206, 215, 7, 209, 103, 202, 241, 195, 173, 189, 158, 183, 203, 177, 54, 172, 230, 166, 222, 161, 34, 157, 183, 152, 159, 148, 223, 144, 121, 141, 112, 138, 198, 135, 126, 133, 153, 131, 25, 130, 0, 129, 77, 128, 3, 128, 32, 128, 164, 128, 145, 129, 228, 130, 156, 132, 185, 134, 56, 137, 23, 140, 85, 143, 238, 146, 223, 150, 38, 155, 191, 159, 166, 164, 215, 169, 78, 175, 6, 181, 252, 186, 41, 193, 137, 199, 24, 206, 206, 212, 168, 219, 159, 226, 174, 233, 208, 240, 253, 247, 49, 255, 102, 6, 149, 13, 186, 20, 206, 27, 203, 34, 172, 41, 107, 48, 2, 55, 109, 61, 167, 67, 169, 73, 111, 79, 246, 84, 55, 90, 46, 95, 217, 99, 51, 104, 56, 108, 229, 111, 55, 115, 44, 118, 193, 120, 243, 122, 194, 124, 44, 126, 48, 127, 204, 127, 255, 127, 204, 127, 49, 127, 47, 126, 198, 124, 248, 122, 198, 120, 49, 118, 61, 115, 236, 111, 64, 108, 59, 104, 226, 99, 56, 95, 65, 90, 1, 85, 123, 79, 181, 73, 179, 67, 123, 61, 16, 55, 120, 48, 186, 41, 217, 34, 220, 27, 201, 20, 164, 13, 117, 6, 64, 255, 12, 248, 222, 240, 189, 233, 174, 226, 182, 219, 220, 212, 37, 206, 151, 199, 54, 193, 8, 187, 18, 181, 89, 175, 226, 169, 176, 164, 201, 159, 47, 155, 232, 150, 246, 146, 92, 143, 30, 140, 61, 137, 190, 134, 160, 132, 231, 130, 147, 129, 166, 128, 32, 128, 2, 128, 76, 128, 254, 128, 23, 130, 150, 131, 121, 133, 193, 135, 106, 138, 114, 141, 216, 144, 151, 148, 174, 152, 25, 157, 212, 161, 219, 166, 43, 172, 191, 177, 146, 183, 160, 189, 228, 195, 89, 202, 249, 208, 192, 215, 167, 222, 169, 229, 193, 236, 232, 243, 25, 251, 78, 2, 130, 9, 173, 16, 203, 23, 214, 30, 199, 37, 154, 44, 73, 51, 206, 57, 36, 64, 70, 70, 47, 76, 219, 81, 67, 87, 101, 92, 60, 97, 196, 101, 250, 105, 217, 109, 95, 113, 137, 116, 85, 119, 192, 121, 200, 123, 107, 125, 169, 126, 128, 127, 239, 127, 246, 127, 150, 127, 206, 126, 159, 125, 10, 124, 17, 122, 180, 119, 247, 116, 218, 113, 97, 110, 142, 106, 101, 102, 232, 97, 29, 93, 5, 88, 166, 82, 4, 77, 36, 71, 10, 65, 187, 58, 60, 52, 147, 45, 197, 38, 215, 31, 208, 24, 181, 17, 139, 10, 88, 3, 35, 252, 241, 244, 200, 237, 174, 230, 168, 223, 189, 216, 241, 209, 75, 203, 208, 196, 132, 190, 110, 184, 146, 178, 245, 172, 155, 167, 137, 162, 194, 157, 76, 153, 41, 149, 92, 145, 234, 141, 212, 138, 29, 136, 199, 133, 213, 131, 72, 130, 32, 129, 96, 128, 7, 128, 22, 128, 140, 128, 107, 129, 176, 130, 90, 132, 105, 134, 219, 136, 174, 139, 223, 142, 107, 146, 81, 150, 140, 154, 26, 159, 247, 163, 30, 169, 140, 174, 59, 180, 41, 186, 79, 192, 169, 198, 49, 205, 226, 211, 184, 218, 171, 225, 183, 232, 214, 239, 3, 247, 54, 254, 107, 5, 156, 12, 194, 19, 216, 26, 217, 33, 190, 40, 130, 47, 31, 54, 145, 60, 209, 66, 219, 72, 170, 78, 57, 84, 132, 89, 134, 94, 59, 99, 160, 103, 177, 107, 106, 111, 201, 114, 202, 117, 108, 120, 173, 122, 137, 124, 1, 126, 18, 127, 188, 127, 255, 127, 218, 127, 76, 127, 88, 126, 253, 124, 60, 123, 24, 121, 145, 118, 170, 115, 101, 112, 197, 108, 204, 104, 127, 100, 223, 95, 243, 90, 188, 85, 63, 80, 130, 74, 136, 68, 86, 62, 242, 55, 96, 49, 167, 42, 202, 35, 209, 28, 192, 21, 158, 14, 112, 7, 59, 0, 7, 249, 216, 241, 180, 234, 162, 227, 167, 220, 201, 213, 13, 207, 121, 200, 17, 194, 220, 187, 223, 181, 29, 176, 156, 170, 97, 165, 111, 160, 203, 155, 120, 151, 122, 147, 212, 143, 137, 140, 156, 137, 15, 135, 228, 132, 29, 131, 187, 129, 192, 128, 44, 128, 0, 128, 60, 128, 224, 128, 234, 129, 92, 131, 50, 133, 108, 135, 8, 138, 3, 141, 92, 144, 16, 148, 27, 152, 122, 156, 42, 161, 66, 166, 159, 171, 62, 177, 25, 183, 44, 189, 113, 195, 228, 201, 128, 208, 61, 215, 25, 222, 11, 229, 15, 236, 32, 243, 54, 250, 78, 1, 96, 8, 103, 15, 93, 22, 61, 29, 1, 36, 164, 42, 33, 49, 114, 55, 146, 61, 124, 67, 44, 73, 157, 78, 204, 83, 179, 88, 79, 93, 157, 97, 153, 101, 64, 105, 144, 108, 133, 111, 30, 114, 89, 116, 52, 118, 175, 119, 199, 120, 124, 121, 207, 121, 190, 121, 75, 121, 117, 120, 63, 119, 168, 117, 179, 115, 97, 113, 180, 110, 176, 107, 86, 104, 169, 100, 172, 96, 100, 92, 212, 87, 255, 82, 233, 77, 152, 72, 15, 67, 83, 61, 105, 55, 85, 49, 30, 43, 199, 36, 86, 30, 209, 23, 60, 17, 158, 10, 251, 3, 89, 253, 190, 246, 46, 240, 175, 233, 71, 227, 249, 220, 205, 214, 197, 208, 232, 202, 57, 197, 190, 191, 123, 186, 115, 181, 171, 176, 38, 172, 233, 167, 245, 163, 79, 160, 249, 156, 245, 153, 70, 151, 238, 148, 238, 146, 72, 145, 253, 143, 14, 143, 123, 142, 68, 142, 106, 142, 236, 142, 201, 143, 1, 145, 146, 146, 123, 148, 186, 150, 77, 153, 50, 156, 101, 159, 229, 162, 174, 166, 189, 170, 15, 175, 159, 179, 107, 184, 109, 189, 162, 194, 5, 200, 146, 205, 69, 211, 24, 217, 6, 223, 11, 229, 34, 235, 70, 241, 114, 247, 161, 253, 205, 3, 242, 9, 10, 16, 18, 22, 4, 28, 218, 33, 146, 39, 37, 45, 144, 50, 206, 55, 219, 60, 180, 65, 83, 70, 183, 74, 219, 78, 188, 82, 87, 86, 169, 89, 177, 92, 107, 95, 214, 97, 240, 99, 183, 101, 42, 103, 73, 104, 18, 105, 134, 105, 163, 105, 107, 105, 221, 104, 251, 103, 197, 102, 60, 101, 98, 99, 57, 97, 194, 94, 1, 92, 246, 88, 166, 85, 18, 82, 63, 78, 46, 74, 228, 69, 101, 65, 180, 60, 213, 55, 204, 50, 157, 45, 78, 40, 225, 34, 92, 29, 195, 23, 27, 18, 105, 12, 176, 6, 246, 0, 64, 251, 145, 245, 240, 239, 95, 234, 228, 228, 131, 223, 65, 218, 33, 213, 39, 208, 88, 203, 183, 198, 73, 194, 15, 190, 15, 186, 74, 182, 195, 178, 126, 175, 125, 172, 194, 169, 79, 167, 38, 165, 72, 163, 183, 161, 115, 160, 126, 159, 216, 158, 129, 158, 122, 158, 194, 158, 89, 159, 61, 160, 111, 161, 236, 162, 180, 164, 197, 166, 29, 169, 185, 171, 151, 174, 182, 177, 17, 181, 167, 184, 116, 188, 117, 192, 166, 196, 4, 201, 140, 205, 57, 210, 7, 215, 243, 219, 248, 224, 18, 230, 62, 235, 118, 240, 183, 245, 252, 250, 65, 0, 129, 5, 185, 10, 228, 15, 254, 20, 2, 26, 238, 30, 189, 35, 106, 40, 244, 44, 85, 49, 138, 53, 145, 57, 101, 61, 5, 65, 109, 68, 155, 71, 140, 74, 62, 77, 175, 79, 221, 81, 200, 83, 108, 85, 202, 86, 225, 87, 175, 88, 52, 89, 113, 89, 101, 89, 16, 89, 115, 88, 143, 87, 101, 86, 246, 84, 66, 83, 77, 81, 23, 79, 163, 76, 243, 73, 9, 71, 232, 67, 146, 64, 11, 61, 85, 57, 116, 53, 106, 49, 60, 45, 237, 40, 129, 36, 250, 31, 94, 27, 175, 22, 242, 17, 42, 13, 92, 8, 139, 3, 187, 254, 241, 249, 48, 245, 123, 240, 216, 235, 73, 231, 210, 226, 118, 222, 58, 218, 32, 214, 43, 210, 95, 206, 191, 202, 78, 199, 13, 196, 0, 193, 41, 190, 138, 187, 37, 185, 251, 182, 15, 181, 97, 179, 243, 177, 198, 176, 218, 175, 48, 175, 200, 174, 163, 174, 191, 174, 30, 175, 190, 175, 158, 176, 190, 177, 29, 179, 185, 180, 144, 182, 162, 184, 235, 186, 106, 189, 29, 192, 2, 195, 21, 198, 85, 201, 189, 204, 76, 208, 255, 211, 210, 215, 194, 219, 203, 223, 235, 227, 30, 232, 96, 236, 174, 240, 5, 245, 96, 249, 188, 253, 22, 2, 106, 6, 181, 10, 243, 14, 33, 19, 59, 23, 62, 27, 39, 31, 244, 34, 160, 38, 41, 42, 140, 45, 199, 48, 216, 51, 187, 54, 111, 57, 242, 59, 65, 62, 92, 64, 64, 66, 236, 67, 96, 69, 154, 70, 154, 71, 94, 72, 231, 72, 51, 73, 69, 73, 26, 73, 181, 72, 21, 72, 58, 71, 39, 70, 220, 68, 91, 67, 164, 65, 186, 63, 158, 61, 82, 59, 216, 56, 51, 54, 100, 51, 111, 48, 85, 45, 26, 42, 192, 38, 74, 35, 187, 31, 22, 28, 94, 24, 150, 20, 193, 16, 227, 12, 255, 8, 23, 5, 47, 1, 75, 253, 109, 249, 153, 245, 209, 241, 24, 238, 115, 234, 226, 230, 106, 227, 13, 224, 206, 220, 175, 217, 178, 214, 218, 211, 41, 209, 161, 206, 69, 204, 20, 202, 18, 200, 64, 198, 158, 196, 47, 195, 243, 193, 234, 192, 22, 192, 119, 191, 12, 191, 216, 190, 216, 190, 13, 191, 119, 191, 20, 192, 229, 192, 233, 193, 29, 195, 130, 196, 21, 198, 214, 199, 194, 201, 216, 203, 22, 206, 122, 208, 1, 211, 171, 213, 115, 216, 89, 219, 88, 222, 112, 225, 157, 228, 220, 231, 43, 235, 135, 238, 237, 241, 90, 245, 204, 248, 64, 252, 178, 255, 33, 3, 137, 6, 231, 9, 58, 13, 125, 16, 175, 19, 205, 22, 213, 25, 196, 28, 152, 31, 79, 34, 230, 36, 92, 39, 175, 41, 222, 43, 230, 45, 198, 47, 125, 49, 9, 51, 107, 52, 159, 53, 167, 54, 129, 55, 44, 56, 169, 56, 248, 56, 24, 57, 9, 57, 204, 56, 97, 56, 200, 55, 3, 55, 19, 54, 247, 52, 178, 51, 69, 50, 177, 48, 247, 46, 26, 45, 26, 43, 250, 40, 187, 38, 96, 36, 234, 33, 93, 31, 185, 28, 1, 26, 56, 23, 96, 20, 124, 17, 141, 14, 150, 11, 154, 8, 155, 5, 156, 2, 158, 255, 166, 252, 180, 249, 203, 246, 238, 243, 31, 241, 96, 238, 179, 235, 27, 233, 153, 230, 47, 228, 223, 225, 171, 223, 149, 221, 157, 219, 198, 217, 17, 216, 127, 214, 17, 213, 200, 211, 164, 210, 168, 209, 210, 208, 37, 208, 159, 207, 65, 207, 12, 207, 254, 206, 25, 207, 91, 207, 197, 207, 85, 208, 11, 209, 230, 209, 229, 210, 8, 212, 76, 213, 178, 214, 55, 216, 217, 217, 153, 219, 115, 221, 102, 223, 113, 225, 146, 227, 198, 229, 12, 232, 98, 234, 198, 236, 54, 239, 175, 241, 48, 244, 183, 246, 65, 249, 204, 251, 87, 254, 222, 0, 97, 3, 221, 5, 80, 8, 184, 10, 20, 13, 97, 15, 157, 17, 200, 19, 222, 21, 223, 23, 202, 25, 156, 27, 84, 29, 241, 30, 115, 32, 215, 33, 30, 35, 70, 36, 78, 37, 53, 38, 252, 38, 162, 39, 39, 40, 138, 40, 203, 40, 234, 40, 232, 40, 196, 40, 128, 40, 27, 40, 150, 39, 241, 38, 46, 38, 78, 37, 80, 36, 55, 35, 3, 34, 182, 32, 80, 31, 212, 29, 66, 28, 156, 26, 227, 24, 25, 23, 64, 21, 89, 19, 102, 17, 105, 15, 99, 13, 86, 11, 68, 9, 46, 7, 23, 5, 0, 3, 234, 0, 216, 254, 203, 252, 196, 250, 198, 248, 210, 246, 234, 244, 14, 243, 65, 241, 132, 239, 216, 237, 62, 236, 184, 234, 70, 233, 234, 231, 164, 230, 118, 229, 96, 228, 99, 227, 128, 226, 182, 225, 7, 225, 115, 224, 250, 223, 156, 223, 90, 223, 50, 223, 38, 223, 53, 223, 95, 223, 163, 223, 0, 224, 120, 224, 7, 225, 175, 225, 111, 226, 68, 227, 48, 228, 48, 229, 67, 230, 105, 231, 160, 232, 232, 233, 63, 235, 163, 236, 20, 238, 144, 239, 22, 241, 165, 242, 58, 244, 213, 245, 117, 247, 24, 249, 188, 250, 96, 252, 3, 254, 163, 255, 64, 1, 215, 2, 104, 4, 241, 5, 113, 7, 232, 8, 83, 10, 177, 11, 3, 13, 70, 14, 122, 15, 158, 16, 177, 17, 179, 18, 163, 19, 128, 20, 73, 21, 255, 21, 161, 22, 46, 23, 167, 23, 11, 24, 90, 24, 148, 24, 185, 24, 201, 24, 196, 24, 172, 24, 127, 24, 62, 24, 235, 23, 132, 23, 12, 23, 129, 22, 230, 21, 59, 21, 128, 20, 183, 19, 224, 18, 252, 17, 12, 17, 16, 16, 11, 15, 253, 13, 230, 12, 201, 11, 165, 10, 125, 9, 81, 8, 33, 7, 240, 5, 190, 4, 140, 3, 92, 2, 45, 1, 2, 0, 220, 254, 186, 253, 158, 252, 137, 251, 124, 250, 119, 249, 124, 248, 138, 247, 163, 246, 200, 245, 248, 244, 53, 244, 126, 243, 213, 242, 57, 242, 171, 241, 44, 241, 187, 240, 88, 240, 5, 240, 192, 239, 138, 239, 98, 239, 73, 239, 63, 239, 67, 239, 85, 239, 117, 239, 162, 239, 220, 239, 35, 240, 118, 240, 212, 240, 62, 241, 178, 241, 49, 242, 184, 242, 73, 243, 225, 243, 129, 244, 39, 245, 212, 245, 134, 246, 60, 247, 246, 247, 179, 248, 115, 249, 52, 250, 246, 250, 185, 251, 123, 252, 59, 253, 250, 253, 183, 254, 112, 255, 37, 0, 215, 0, 131, 1, 42, 2, 203, 2, 102, 3, 250, 3, 135, 4, 12, 5, 138, 5, 255, 5, 108, 6, 209, 6, 44, 7, 127, 7, 201, 7, 10, 8, 65, 8, 112, 8, 149, 8, 178, 8, 198, 8, 209, 8, 212, 8, 206, 8, 192, 8, 171, 8, 142, 8, 106, 8, 64, 8, 15, 8, 216, 7, 155, 7, 89, 7, 19, 7, 200, 6, 122, 6, 40, 6, 211, 5, 123, 5, 34, 5, 199, 4, 108, 4, 15, 4 )

